<?xml version="1.0" encoding="utf-8"?>
<!DOCTYPE svg PUBLIC "-//W3C//DTD SVG 1.1//EN" "http://www.w3.org/Graphics/SVG/1.1/DTD/svg11.dtd">
<svg version="1.1" id="Capa_1" xmlns="http://www.w3.org/2000/svg" xmlns:xlink="http://www.w3.org/1999/xlink" x="0px" y="0px"
	 width="612px" height="792px" viewBox="0 0 612 792" enable-background="new 0 0 612 792" xml:space="preserve">
<rect x="106.25" y="344.604" fill="#FFFFFF" width="1.728" height="100.632"/>
<g>
	<g>
		<path fill="#FFFFFF" d="M71.267,419.322c0.432-1.296,0-2.591-1.295-3.887l-13.389-12.094c-1.728-1.295-4.319-1.728-6.479-0.863
			l-4.319,1.728c-1.295,0.432-2.591,0-3.455-0.432c-1.728-2.592-3.455-5.183-5.183-7.774c-1.728-2.591-3.023-5.183-4.319-8.206
			c-0.432-0.864,0-2.16,1.296-2.591l4.319-1.728c2.16-0.864,3.455-3.023,3.023-5.183l-4.319-16.412
			c-0.432-1.295-1.296-2.591-3.023-3.023c-1.728-0.432-3.455-0.432-4.751,0l-6.479,2.591c-4.319,1.728-6.479,6.91-5.615,14.685
			c0.864,7.342,3.887,15.98,9.07,24.187c5.183,8.206,11.662,15.548,18.14,20.299c3.455,2.592,6.479,3.887,9.501,4.751
			c3.023,0.863,5.615,0.863,8.206,0l6.479-2.592C69.971,421.914,70.835,420.618,71.267,419.322L71.267,419.322z"/>
	</g>
</g>
<g>
	<path fill="#FFFFFF" d="M569.674,399.023l-24.618,24.618c-1.728,1.728-4.319,1.728-5.614,0c-1.728-1.728-1.728-4.319,0-5.615
		L561.468,396l-22.026-22.027c-1.728-1.728-1.728-4.319,0-5.615c1.728-1.728,4.318-1.728,5.614,0l24.618,24.618
		c0.864,0.864,1.296,1.728,1.296,3.023C570.97,396.863,570.538,398.159,569.674,399.023z"/>
</g>
<path fill="#FFFFFF" d="M55.287,371.382c0-0.864,0.864-1.296,1.295-1.296c0.864,0,1.296,0.864,1.296,1.296l-1.728,13.389
	l25.05-19.436c0.432-0.432,1.296-0.432,1.728,0.432c0.432,0.432,0.432,1.296-0.432,1.728l-25.05,19.436l14.253,2.16
	c0.864,0,1.295,0.864,1.295,1.295c0,0.864-0.864,1.296-1.295,1.296l-17.276-2.16c-0.864,0-1.296-0.864-1.296-1.296L55.287,371.382z"
	/>
</svg>
